<svg width="597" height="169" viewBox="0 0 597 169" fill="none" xmlns="http://www.w3.org/2000/svg">
<path d="M426.288 169L0 83.7609V0L426.288 85.4854L597 0V83.7609L426.288 169Z" fill="#99CF18"/>
</svg>
