<?xml version="1.0" standalone="no"?>
<!DOCTYPE svg PUBLIC "-//W3C//DTD SVG 20010904//EN"
 "http://www.w3.org/TR/2001/REC-SVG-20010904/DTD/svg10.dtd">
<svg version="1.0" xmlns="http://www.w3.org/2000/svg"
 width="700.000000pt" height="700.000000pt" viewBox="0 0 700.000000 700.000000"
 preserveAspectRatio="xMidYMid meet">
<metadata>
Created by potrace 1.11, written by Peter Selinger 2001-2013
</metadata>
<g transform="translate(0.000000,700.000000) scale(0.100000,-0.100000)"
fill="#000000" stroke="none">
<path d="M0 3500 l0 -3500 3500 0 3500 0 0 3500 0 3500 -3500 0 -3500 0 0
-3500z m5395 1858 l745 -373 0 -373 c0 -206 -3 -372 -8 -370 -4 2 -337 168
-739 371 -407 204 -743 367 -758 367 -14 0 -867 -166 -1894 -370 -1028 -203
-1871 -370 -1875 -370 -3 0 -6 168 -6 373 l0 374 693 137 c380 75 1221 242
1867 370 646 129 1187 234 1202 235 18 1 295 -133 773 -371z m-5 -1493 l750
-375 0 -360 c0 -242 -3 -360 -10 -360 -6 0 -342 167 -747 371 l-735 371 -332
-65 c-182 -37 -776 -154 -1321 -262 -1958 -388 -2100 -416 -2117 -421 -17 -5
-18 17 -18 359 l0 365 23 5 c12 3 364 73 782 156 672 133 2966 588 2973 590 1
1 340 -168 752 -374z m5 -1477 l745 -373 0 -372 c0 -205 -2 -373 -5 -373 -3 0
-340 167 -749 372 l-744 372 -1883 -372 c-1036 -205 -1887 -372 -1891 -372 -5
0 -8 167 -8 370 0 287 3 372 13 375 21 8 3731 743 3754 744 13 1 358 -167 768
-371z"/>
</g>
</svg>
