<svg width="534" height="216" viewBox="0 0 534 216" fill="none" xmlns="http://www.w3.org/2000/svg">
<path d="M135.202 165.678L520.046 165.734L533.042 100.099L148.199 100.043L26.2216 6.47812L13.2254 72.1135L135.202 165.678Z" fill="#FE7011"/>
</svg>
